<svg width="33" height="33" viewBox="0 0 33 33" fill="none" xmlns="http://www.w3.org/2000/svg">
<path d="M16.5 0.25C7.5625 0.25 0.25 7.5625 0.25 16.5C0.25 25.4375 7.5625 32.75 16.5 32.75C25.4375 32.75 32.75 25.4375 32.75 16.5C32.75 7.5625 25.4375 0.25 16.5 0.25ZM16.5 29.5C9.33375 29.5 3.5 23.6663 3.5 16.5C3.5 9.33375 9.33375 3.5 16.5 3.5C23.6663 3.5 29.5 9.33375 29.5 16.5C29.5 23.6663 23.6663 29.5 16.5 29.5ZM23.9587 9.3175L13.25 20.0263L9.04125 15.8337L6.75 18.125L13.25 24.625L26.25 11.625L23.9587 9.3175Z" fill="#609E27"/>
</svg>
