<svg width="16" height="20" viewBox="0 0 16 20" fill="none" xmlns="http://www.w3.org/2000/svg">
<path d="M10 0H2C0.9 0 0 0.9 0 2V18C0 19.1 0.9 20 2 20H14C15.1 20 16 19.1 16 18V6L10 0ZM14 18H2V2H9V7H14V18ZM5 11V17H3V11H5ZM11 13V17H13V13H11ZM7 9V17H9V9H7Z" fill="white"/>
</svg>
