<svg width="19" height="18" viewBox="0 0 19 18" fill="none" xmlns="http://www.w3.org/2000/svg">
<path d="M16.8818 0H2.98351C1.88158 0 0.998047 0.89 0.998047 2V6H2.98351V2H16.8818V16H2.98351V12H0.998047V16C0.998047 16.5304 1.20723 17.0391 1.57958 17.4142C1.95192 17.7893 2.45693 18 2.98351 18H16.8818C17.4083 18 17.9133 17.7893 18.2857 17.4142C18.658 17.0391 18.8672 16.5304 18.8672 16V2C18.8672 1.46957 18.658 0.960859 18.2857 0.585786C17.9133 0.210714 17.4083 0 16.8818 0ZM8.02659 12.58L9.43627 14L14.3999 9L9.43627 4L8.02659 5.41L10.5978 8H0.998047V10H10.5978L8.02659 12.58Z" fill="black"/>
</svg>
